no_delay:
code : 10401 accesses ( R = 10401 , W = 0 )
data : 232 accesses ( R = 230 , W = 2 )
exceptions : 0 accesses ( R = 0 , W = 0 )
gp : 2048 accesses ( R = 1024 , W = 1024 )
reset : 14 accesses ( R = 14 , W = 0 )
total : 12695 accesses ( R = 11669 , W = 1026 )
simulation time elapsed: 2.60e-05 s
wall clock time elapsed: 5.92e-02 s

delay:
code : 10401 accesses ( R = 10401 , W = 0 )
data : 232 accesses ( R = 230 , W = 2 )
exceptions : 0 accesses ( R = 0 , W = 0 )
gp : 2048 accesses ( R = 1024 , W = 1024 )
reset : 14 accesses ( R = 14 , W = 0 )
total : 12695 accesses ( R = 11669 , W = 1026 )
simulation time elapsed: 5.77e-05 s
wall clock time elapsed: 3.68e-02 s

==> à part le wall clock time qui est dans les choux (bug ? pc qui fait tourner autre chose en meme temps que la simulation ?) le délai à l'air effectivement introduit.

spm_lat[] = {1, 2, 2} : en cycles dans l'ordre : code, data, gp
period = 2.5 ns

on devrait donc avoir introduit (si tout les accès étaien séquentiels):


delta = code_access_count x code_lat x period
        + data_access_count x data_lat x period
        + gp_access_count x gp_lat x period

delta = 10401 x 1 x 2.5e^-9
        + 232 x 2 x 2.5e^-9
        + 2048 x 2 x 2.5e^-9

delta = 3.7403e-5 s

sim_time(delay) - sim_time(no_delay) = 5.77e-05 - 2.60e-05 = 3.17e-5

==> j'observe donc un resultat inferieur de 15% au calcul "sequentiel"

je ne peux donc pas conclure que le comportement temporel de la simulation est correct, mais je n'ai pas trouvé de bug.
